Data_Organization
…
Separate one column into two

In the code below, the separate() method takes column X and separates
it into two colums, make and model, getting rid of the X column. The
default delimeter is a space, and the extra= parameter told it to just
squish everything else in.

tb <- 
   tb %>% separate(X, c("make", "model"), extra = "merge")

tb

## # A tibble: 32 × 13
##    make  model   mpg   cyl  disp    hp  drat    wt  qsec    vs    am  gear  carb
##    <chr> <chr> <dbl> <int> <dbl> <int> <dbl> <dbl> <dbl> <int> <int> <int> <int>
##  1 Mazda RX4    21       6  160    110  3.9   2.62  16.5     0     1     4     4
##  2 Mazda RX4 …  21       6  160    110  3.9   2.88  17.0     0     1     4     4
##  3 Dats… 710    22.8     4  108     93  3.85  2.32  18.6     1     1     4     1
##  4 AMC   Horn…  21.4     6  258    110  3.08  3.22  19.4     1     0     3     1
##  5 AMC   Horn…  18.7     8  360    175  3.15  3.44  17.0     0     0     3     2
##  6 Chry… Vali…  18.1     6  225    105  2.76  3.46  20.2     1     0     3     1
##  7 Plym… Dust…  14.3     8  360    245  3.21  3.57  15.8     0     0     3     4
##  8 Merc  240D   24.4     4  147.    62  3.69  3.19  20       1     0     4     2
##  9 Merc  230    22.8     4  141.    95  3.92  3.15  22.9     1     0     4     2
## 10 Merc  280    19.2     6  168.   123  3.92  3.44  18.3     1     0     4     4
## # ℹ 22 more rows
…
Unite multiple columns into one

Just to show we can, let’s merge make and model back into car.

tb_cars <- tb %>%
  unite("car", make:model)
tb_cars

## # A tibble: 32 × 12
##    car           mpg   cyl  disp    hp  drat    wt  qsec    vs    am  gear  carb
##    <chr>       <dbl> <int> <dbl> <int> <dbl> <dbl> <dbl> <int> <int> <int> <int>
##  1 Mazda_RX4    21       6  160    110  3.9   2.62  16.5     0     1     4     4
##  2 Mazda_RX4 …  21       6  160    110  3.9   2.88  17.0     0     1     4     4
##  3 Datsun_710   22.8     4  108     93  3.85  2.32  18.6     1     1     4     1
##  4 AMC_Hornet…  21.4     6  258    110  3.08  3.22  19.4     1     0     3     1
##  5 AMC_Hornet…  18.7     8  360    175  3.15  3.44  17.0     0     0     3     2
##  6 Chrysler_V…  18.1     6  225    105  2.76  3.46  20.2     1     0     3     1
##  7 Plymouth_D…  14.3     8  360    245  3.21  3.57  15.8     0     0     3     4
##  8 Merc_240D    24.4     4  147.    62  3.69  3.19  20       1     0     4     2
##  9 Merc_230     22.8     4  141.    95  3.92  3.15  22.9     1     0     4     2
## 10 Merc_280     19.2     6  168.   123  3.92  3.44  18.3     1     0     4     4
## # ℹ 22 more rows
…
